{
  "id": "vagrant",
  "version": "1.7.4",
  "mac-version": "1.7.4",
  "active_version": "1.7.4",
  "mac-active_version": "1.7.4",
  "tar-gz": " ",
  "dmg": "vagrant_1.7.4.dmg",
  "centos6_rpm": "vagrant_1.7.4_x86_64.rpm",
  "download_src": "https://releases.hashicorp.com/vagrant/1.7.4/vagrant_1.7.4_x86_64.rpm",
  "mac1010-download_src": "https://releases.hashicorp.com/vagrant/1.7.4/vagrant_1.7.4.dmg",
  "download_dir": "/usr/local/src/DOWNLOADS",
  "location": "San Diego"
}
